Introduction to AFL Analytics with Useless AFL Stats · Crow Data Science
…
Who has the highest disposal tally equal to their jumper number?

and:

Which season has the highest accuracy?

Selecting columns

Now that the data is loaded and in a format we can easily manipulate, lets take a look at some basic functions. dplyr has built in functions to make this process as painless as possible. Firstly, lets look at select, and function that keeps the columns we want to investigate. Also we are going to be making use of %>%, known as a pipe, to channel our data through various functions. A shortcut for the command is Ctrl + Shift + m.

afltables %>% 
  select(season, round, id, first_name, surname, jumper_no, kicks, handballs)

## # A tibble: 174,284 x 8
##    season round    id first_name surname jumper_no kicks handballs
##     <dbl> <chr> <dbl> <chr>      <chr>       <dbl> <dbl>     <dbl>
##  1   2000 1        12 Mark       Bickley        26    16         3
##  2   2000 1        68 Brett      Burton         24     8         2
##  3   2000 1        77 James      Byrne           6     5         1
##  4   2000 1        78 Matthew    Clarke          4     1         3
##  5   2000 1        79 Andrew     Crowell         1     4         4
##  6   2000 1        61 Andrew     Eccles         33    10         7
##  7   2000 1        34 Tyson      Edwards         9    17         4
##  8   2000 1        35 Shane      Ellen          13    10         2
##  9   2000 1        51 Simon      Goodwin        36    10         8
## 10   2000 1        22 Ben        Hart           34     7         2
## # ... with 174,274 more rows

Combining (mutating) columns

Nice, now we’ve got the data want to investigate we can use a technique using a function called mutate. Whats interesting is this data source doesn’t have a disposals count column, but we can easily recreate it by adding handballs to kicks with one line of code.

afltables %>% 
  select(season, round, id, first_name, surname, jumper_no, kicks, handballs) %>% 
  mutate(disposals = kicks + handballs) #name of our new column goes on the left hand side

## # A tibble: 174,284 x 9
##    season round    id first_name surname jumper_no kicks handballs disposals
##     <dbl> <chr> <dbl> <chr>      <chr>       <dbl> <dbl>     <dbl>     <dbl>
##  1   2000 1        12 Mark       Bickley        26    16         3        19
##  2   2000 1        68 Brett      Burton         24     8         2        10
##  3   2000 1        77 James      Byrne           6     5         1         6
##  4   2000 1        78 Matthew    Clarke          4     1         3         4
##  5   2000 1        79 Andrew     Crowell         1     4         4         8
##  6   2000 1        61 Andrew     Eccles         33    10         7        17
##  7   2000 1        34 Tyson      Edwards         9    17         4        21
##  8   2000 1        35 Shane      Ellen          13    10         2        12
##  9   2000 1        51 Simon      Goodwin        36    10         8        18
## 10   2000 1        22 Ben        Hart           34     7         2         9
## # ... with 174,274 more rows

Filtering our data

A staple of Useless AFL Stats is the use of the jumper number, mainly because its arbitrary and should have no effect on the game, but nonetheless makes for a great stat. Lets find all the times the disposal count was equal to the jumper number. We can achieve this by using the filter function.

afltables %>% 
  select(season, round, id, first_name, surname, jumper_no, kicks, handballs) %>% 
  mutate(disposals = kicks + handballs) %>% 
  filter(disposals == jumper_no)

## # A tibble: 3,704 x 9
##    season round    id first_name surname  jumper_no kicks handballs disposals
##     <dbl> <chr> <dbl> <chr>      <chr>        <dbl> <dbl>     <dbl>     <dbl>
##  1   2000 1        77 James      Byrne            6     5         1         6
##  2   2000 1        78 Matthew    Clarke           4     1         3         4
##  3   2000 1       436 Luke       Darcy           14    11         3        14
##  4   2000 3         4 Mark       Ricciuto        32    15        17        32
##  5   2000 3       558 Tim        McGrath         17     9         8        17
##  6   2000 7        12 Mark       Bickley         26    15        11        26
##  7   2000 8        80 Scott      Welsh           17    13         4        17
##  8   2000 9        56 Nathan     Bassett          8     6         2         8
##  9   2000 9       777 Glenn      Archer          11     8         3        11
## 10   2000 11       79 Andrew     Crowell          1     0         1         1
## # ... with 3,694 more rows

Arranging by a column

Ok, so we have all the occurrences when jumper no. was equal to disposals, what was the largest? We can use the arrange function on a column to sort by ascending or descending order. The default arrangement for a columns is ascending (smallest at the top to biggest), so we’ll wrap the column in desc() to get the descending order.

afltables %>% 
  select(season, round, id, first_name, surname, jumper_no, kicks, handballs) %>% 
  mutate(disposals = kicks + handballs) %>% 
  filter(disposals == jumper_no) %>% 
  arrange(desc(jumper_no))

## # A tibble: 3,704 x 9
##    season round    id first_name surname  jumper_no kicks handballs disposals
##     <dbl> <chr> <dbl> <chr>      <chr>        <dbl> <dbl>     <dbl>     <dbl>
##  1   2016 18    11787 Tom        Rockliff        38    24        14        38
##  2   2016 13    11787 Tom        Rockliff        38    15        23        38
##  3   2006 2        51 Simon      Goodwin         36    21        15        36
##  4   2010 13       51 Simon      Goodwin         36    17        19        36
##  5   2003 4       842 Nick       Stevens         36    22        14        36
##  6   2008 10     1460 Dane       Swan            36    19        17        36
##  7   2009 9      1460 Dane       Swan            36    21        15        36
##  8   2009 18     1460 Dane       Swan            36    19        17        36
##  9   2010 16     1460 Dane       Swan            36    21        15        36
## 10   2012 4      1460 Dane       Swan            36    18        18        36
## # ... with 3,694 more rows
…
Which season has the highest accuracy?

Lets pull in the data we need to create this stat. We need to sum the total goals and behinds per season.

afltables %>% 
  select(season, goals, behinds) %>% 
  group_by(season) %>% 
  summarise(
    sum_g = sum(goals),
    sum_b = sum(behinds),
    .groups = 'drop'
  )

## # A tibble: 21 x 3
##    season sum_g sum_b
##     <dbl> <dbl> <dbl>
##  1   2000  5626  3705
##  2   2001  5258  3586
##  3   2002  5121  3563
##  4   2003  5101  3546
##  5   2004  5012  3504
##  6   2005  5118  3439
##  7   2006  4959  3535
##  8   2007  5107  3581
##  9   2008  5238  3482
## 10   2009  4913  3515
## # ... with 11 more rows
…
afltables %>% 
  select(season, goals, behinds) %>% 
  group_by(season) %>% 
  summarise(
    sum_g = sum(goals),
    sum_b = sum(behinds),
    .groups = 'drop'  #we also need to drop the grouping after running the command
  ) %>% 
  mutate(
    accuracy = sum_g/(sum_g+sum_b)*100
  ) %>% 
  arrange(desc(accuracy))

## # A tibble: 21 x 4
##    season sum_g sum_b accuracy
##     <dbl> <dbl> <dbl>    <dbl>
##  1   2000  5626  3705     60.3
##  2   2008  5238  3482     60.1
##  3   2005  5118  3439     59.8
##  4   2001  5258  3586     59.5
##  5   2015  5176  3536     59.4
##  6   2003  5101  3546     59.0
##  7   2002  5121  3563     59.0
##  8   2004  5012  3504     58.9
##  9   2007  5107  3581     58.8
## 10   2013  5561  3907     58.7
## # ... with 11 more rows
…
afltables %>% 
  select(season, round, goals, behinds) %>% 
  group_by(season, round) %>% 
  summarise(
    sum_g = sum(goals),
    sum_b = sum(behinds),
    .groups = 'drop'  #we also need to drop the grouping after running the command
  ) %>% 
  mutate(
    accuracy = sum_g/(sum_g+sum_b)*100
  ) %>% 
  arrange(desc(accuracy))

## # A tibble: 558 x 5
##    season round sum_g sum_b accuracy
##     <dbl> <chr> <dbl> <dbl>    <dbl>
##  1   2005 EF       64    28     69.6
##  2   2011 SF       62    28     68.9
##  3   2004 QF       60    29     67.4
##  4   2014 GF       32    16     66.7
##  5   2017 SF       48    24     66.7
##  6   2000 QF       69    35     66.3
##  7   2015 12      175    89     66.3
##  8   2008 EF       61    32     65.6
##  9   2005 PF       49    26     65.3
## 10   2007 16      250   135     64.9
## # ... with 548 more rows
…
