…
Who has the highest amount of disposals equal to their tackle count?

and:

Which team has the highest accuracy?

Selecting columns

Now that the data is loaded and in a format we can easily manipulate, lets take a look at some basic functions. dplyr has built in functions to make this process as painless as possible. Firstly, lets look at select, and function that keeps the columns we want to investigate. Also we are going to be making use of %>%, known as a pipe, to channel our data through various functions. A shortcut for the command is Ctrl + Shift + m.

afltables %>% 
  select(season, round, id, first_name, surname, kicks, handballs, tackles)

## # A tibble: 9,527 x 8
##    season round    id first_name surname  kicks handballs tackles
##     <dbl> <chr> <dbl> <chr>      <chr>    <dbl>     <dbl>   <dbl>
##  1   2021 1     12790 Jake       Aarts        7         5       2
##  2   2021 1     11828 David      Astbury      4         5       1
##  3   2021 1     12661 Liam       Baker        4        11       0
##  4   2021 1     12686 Noah       Balta       10         1       1
##  5   2021 1     12535 Shai       Bolton      13        12       1
##  6   2021 1     12456 Nathan     Broad        4         5       0
##  7   2021 1     12010 Josh       Caddy       12         5       2
##  8   2021 1     12431 Jason      Castagna     8         5       0
##  9   2021 1     11557 Shane      Edwards     11        16       3
## 10   2021 1     12576 Jack       Graham      22        11       3
## # ... with 9,517 more rows

Combining (mutating) columns

Nice, now we’ve got the data want to investigate, we can use a technique using a function called mutate. Whats interesting is this data source doesn’t have a disposals count column, but we can easily recreate it by adding handballs to kicks with one line of code.

afltables %>% 
  select(season, round, id, first_name, surname, kicks, handballs, tackles) %>% 
  mutate(disposals = kicks + handballs) #name of our new column goes on the left hand side

## # A tibble: 9,527 x 9
##    season round    id first_name surname  kicks handballs tackles disposals
##     <dbl> <chr> <dbl> <chr>      <chr>    <dbl>     <dbl>   <dbl>     <dbl>
##  1   2021 1     12790 Jake       Aarts        7         5       2        12
##  2   2021 1     11828 David      Astbury      4         5       1         9
##  3   2021 1     12661 Liam       Baker        4        11       0        15
##  4   2021 1     12686 Noah       Balta       10         1       1        11
##  5   2021 1     12535 Shai       Bolton      13        12       1        25
##  6   2021 1     12456 Nathan     Broad        4         5       0         9
##  7   2021 1     12010 Josh       Caddy       12         5       2        17
##  8   2021 1     12431 Jason      Castagna     8         5       0        13
##  9   2021 1     11557 Shane      Edwards     11        16       3        27
## 10   2021 1     12576 Jack       Graham      22        11       3        33
## # ... with 9,517 more rows

Filtering our data

Lets find all the times the disposal count was equal to the tackles. We can achieve this by using the filter function.

afltables %>% 
  select(season, round, id, first_name, surname, kicks, handballs, tackles) %>% 
  mutate(disposals = kicks + handballs) %>% 
  filter(disposals == tackles)

## # A tibble: 263 x 9
##    season round    id first_name surname   kicks handballs tackles disposals
##     <dbl> <chr> <dbl> <chr>      <chr>     <dbl>     <dbl>   <dbl>     <dbl>
##  1   2021 1     12545 Callum     Brown         0         0       0         0
##  2   2021 1     12748 Rhylee     West          0         0       0         0
##  3   2021 1     12756 Kade       Chandler      0         0       0         0
##  4   2021 1     12265 Tom        Cutler        0         0       0         0
##  5   2021 1     12857 Connor     Downie        0         0       0         0
##  6   2021 1     12443 Rhys       Mathieson     0         0       0         0
##  7   2021 1     12509 Will       Hayward       0         0       0         0
##  8   2021 1     12865 Charlie    Lazzaro       1         0       1         1
##  9   2021 1     12821 Xavier     OHalloran     0         0       0         0
## 10   2021 1     12312 Mason      Wood          0         0       0         0
## # ... with 253 more rows

Arranging by a column

Ok, so we have all the occurrences when tackles was equal to disposals, what was the largest? We can use the arrange function on a column to sort by ascending or descending order. The default arrangement for a columns is ascending (smallest at the top to biggest), so we’ll wrap the column name in desc() to get the descending order.

afltables %>% 
  select(season, round, id, first_name, surname, kicks, handballs, tackles) %>% 
  mutate(disposals = kicks + handballs) %>% 
  filter(disposals == tackles) %>% 
  arrange(desc(disposals))

## # A tibble: 263 x 9
##    season round    id first_name surname kicks handballs tackles disposals
##     <dbl> <chr> <dbl> <chr>      <chr>   <dbl>     <dbl>   <dbl>     <dbl>
##  1   2021 16    12076 Dayne      Zorko       9         3      12        12
##  2   2021 17    12771 Kysaiah    Pickett     6         3       9         9
##  3   2021 21    12904 Kieren     Briggs      6         3       9         9
##  4   2021 9     12905 Ronin      OConnor     1         7       8         8
##  5   2021 16    11994 Scott      Lycett      5         3       8         8
##  6   2021 PF    12695 Willem     Drew        5         3       8         8
##  7   2021 8     12849 Sam        Berry       3         4       7         7
##  8   2021 9     12637 Jamaine    Jones       3         4       7         7
##  9   2021 13    12485 Mabior     Chol        4         3       7         7
## 10   2021 17    12596 Lachie     Fogarty     3         4       7         7
## # ... with 253 more rows
…
afltables %>% 
  select(playing_for, round, goals, behinds) %>% 
  group_by(playing_for, round) %>% 
  summarise(
    sum_g = sum(goals),
    sum_b = sum(behinds),
    .groups = 'drop'
  ) %>% 
  mutate(
    accuracy = sum_g/(sum_g+sum_b)*100
  ) %>% 
  arrange(desc(accuracy))

## # A tibble: 414 x 5
##    playing_for            round sum_g sum_b accuracy
##    <chr>                  <chr> <dbl> <dbl>    <dbl>
##  1 Hawthorn               21       15     2     88.2
##  2 West Coast             4        13     2     86.7
##  3 Greater Western Sydney 3        11     2     84.6
##  4 Richmond               17       11     2     84.6
##  5 Adelaide               6        16     3     84.2
##  6 Hawthorn               13       14     3     82.4
##  7 Western Bulldogs       18       14     3     82.4
##  8 Carlton                20       18     4     81.8
##  9 Adelaide               19       16     4     80  
## 10 Hawthorn               5         8     2     80  
## # ... with 404 more rows
…
