Reverse Engineering Fantasy Points: Frequentist Method with Generalised Linear Models · Crow Data Science
…
print(afltables_2019_fp, width = Inf)

## # A tibble: 9,108 x 14
##       fp kicks handballs marks tackles inside_50_s bounces frees_for
##    <dbl> <dbl>     <dbl> <dbl>   <dbl>       <dbl>   <dbl>     <dbl>
##  1 101.     10        22     1       6           2       1         3
##  2  82.2     9        13     5       5           5       0         1
##  3  43.7    10         2     1       1           2       0         0
##  4 114.     13        12    12       3           3       0         1
##  5  64.5     8        13     3       2           3       0         1
##  6  27.1     4         1     2       1           0       0         1
##  7  81.4    14         8     2       6           3       0         1
##  8  57.3     8         1     3       4           0       0         0
##  9  47.3     5         6     2       3           1       0         0
## 10  56.6     4         4     3       5           0       0         3
##    frees_against one_percenters hit_outs goals behinds goal_assists
##            <dbl>          <dbl>    <dbl> <dbl>   <dbl>        <dbl>
##  1             1              0        0     0       0            0
##  2             2              0        0     0       0            1
##  3             2              0        0     1       0            0
##  4             0              1        0     0       1            1
##  5             1              1        0     0       1            0
##  6             1              0        0     1       0            0
##  7             4              3        0     1       1            1
##  8             0              2        0     0       0            0
##  9             1              2        0     0       1            0
## 10             1              7        0     0       0            0
## # ... with 9,098 more rows
…
